%YAML 1.1
%TAG !u! tag:unity3d.com,2011:
--- !u!114 &11400000
MonoBehaviour:
  m_ObjectHideFlags: 0
  m_CorrespondingSourceObject: {fileID: 0}
  m_PrefabInstance: {fileID: 0}
  m_PrefabAsset: {fileID: 0}
  m_GameObject: {fileID: 0}
  m_Enabled: 1
  m_EditorHideFlags: 0
  m_Script: {fileID: 11500000, guid: 5547d083eec7486d992622758ee56cbb, type: 3}
  m_Name: AKConfig
  m_EditorClassIdentifier: 
  id: 0
  damage: 35
  muzzleFleshId: 0
  ammoCapacity: 100
  fireRate: 6
