%YAML 1.1
%TAG !u! tag:unity3d.com,2011:
--- !u!114 &11400000
MonoBehaviour:
  m_ObjectHideFlags: 0
  m_CorrespondingSourceObject: {fileID: 0}
  m_PrefabInstance: {fileID: 0}
  m_PrefabAsset: {fileID: 0}
  m_GameObject: {fileID: 0}
  m_Enabled: 1
  m_EditorHideFlags: 0
  m_Script: {fileID: 11500000, guid: d239999b7b054032acf8eef64664717c, type: 3}
  m_Name: EnemyConfig
  m_EditorClassIdentifier: 
  moveSpeed: 0.2
  maxDistance: 40
  minDistance: 1
  maxHealth: 100
  hitDamage: 100
